@startuml

/' diagram meta data start
config=StructureConfiguration;
{
  "projectClassification": {
    "searchMode": "OpenProject", // OpenProject, AllProjects
    "includedProjects": "",
    "pathEndKeywords": "*.impl",
    "isClientPath": "",
    "isClientName": "",
    "isTestPath": "",
    "isTestName": "",
    "isMappingPath": "",
    "isMappingName": "",
    "isDataAccessPath": "",
    "isDataAccessName": "",
    "isDataStructurePath": "",
    "isDataStructureName": "",
    "isInterfaceStructuresPath": "",
    "isInterfaceStructuresName": "",
    "isEntryPointPath": "",
    "isEntryPointName": ""
  },
  "graphRestriction": {
    "classPackageExcludeFilter": "",
    "classPackageIncludeFilter": "",
    "classNameExcludeFilter": "",
    "classNameIncludeFilter": "",
    "methodNameExcludeFilter": "",
    "methodNameIncludeFilter": "",
    "removeByInheritance": "", // inheritance/annotation based filtering is done in a second step
    "removeByAnnotation": "",
    "removeByClassPackage": "", // cleanup the graph after inheritance/annotation based filtering is done
    "removeByClassName": "",
    "cutMappings": false,
    "cutEnum": true,
    "cutTests": true,
    "cutClient": true,
    "cutDataAccess": false,
    "cutInterfaceStructures": false,
    "cutDataStructures": false,
    "cutGetterAndSetter": true,
    "cutConstructors": true
  },
  "graphTraversal": {
    "forwardDepth": 6,
    "backwardDepth": 6,
    "classPackageExcludeFilter": "",
    "classPackageIncludeFilter": "",
    "classNameExcludeFilter": "",
    "classNameIncludeFilter": "",
    "methodNameExcludeFilter": "",
    "methodNameIncludeFilter": "",
    "hideMappings": false,
    "hideDataStructures": false,
    "hidePrivateMethods": true,
    "hideInterfaceCalls": true, // indirection: implementation -> interface (is hidden) -> implementation
    "onlyShowApplicationEntryPoints": false // root node is included
  },
  "details": {
    "aggregation": "GroupByClass", // ByClass, GroupByClass, None
    "showClassGenericTypes": true,
    "showMethods": true,
    "showMethodParameterNames": true,
    "showMethodParameterTypes": true,
    "showMethodReturnType": true,
    "showPackageLevels": 2,
    "showDetailedClassStructure": true
  },
  "rootClass": "com.example.fooddelivery.BaseNotifier"
}
diagram meta data end '/



digraph g {
    rankdir="TB"
    splines=polyline
    

'nodes 
subgraph cluster_1322970774 { 
   	label=example
	labeljust=l
	fillcolor="#ececec"
	style=filled
   
   subgraph cluster_698802090 { 
   	label=fooddelivery
	labeljust=l
	fillcolor="#d8d8d8"
	style=filled
   
   BaseNotifier14771875[
	label=<<TABLE BORDER="1" CELLBORDER="0" CELLPADDING="4" CELLSPACING="0">
<TR><TD ALIGN="LEFT" >(C)BaseNotifier</TD></TR>
<HR/>
<TR><TD ALIGN="LEFT" >-   wifiStateRceiver: BroadcastReceiver [0..1]</TD></TR>
<HR/>
<TR><TD ALIGN="LEFT" >+ onAccuracyChanged(sensor: Sensor, accuracy: int)</TD></TR>
<TR><TD ALIGN="LEFT" ># onCreate(savedInstanceState: Bundle)</TD></TR>
<TR><TD ALIGN="LEFT" ># onPause()</TD></TR>
<TR><TD ALIGN="LEFT" ># onResume()</TD></TR>
<TR><TD ALIGN="LEFT" >+ onSensorChanged(event: SensorEvent)</TD></TR>
<TR><TD ALIGN="LEFT" ># onStart()</TD></TR>
</TABLE>>
	style=filled
	margin=0
	shape=plaintext
	fillcolor="#FFFFFF"
];

CategoryActivity448957431[
	label=<<TABLE BORDER="1" CELLBORDER="0" CELLPADDING="4" CELLSPACING="0">
<TR><TD ALIGN="LEFT" >(C)CategoryActivity</TD></TR>
<HR/>
<TR><TD ALIGN="LEFT" >#   tabLayout: TabLayout [0..1]</TD></TR>
<TR><TD ALIGN="LEFT" >#   toolbar: Toolbar [0..1]</TD></TR>
<TR><TD ALIGN="LEFT" >#   viewPager: ViewPager [0..1]</TD></TR>
<HR/>
<TR><TD ALIGN="LEFT" >- initActionBar()</TD></TR>
<TR><TD ALIGN="LEFT" >- initIntent()</TD></TR>
<TR><TD ALIGN="LEFT" ># onCreate(savedInstanceState: Bundle)</TD></TR>
<TR><TD ALIGN="LEFT" >+ onOptionsItemSelected(item: MenuItem): boolean</TD></TR>
</TABLE>>
	style=filled
	margin=0
	shape=plaintext
	fillcolor="#FFFFFF"
];

LoginActivity14771875[
	label=<<TABLE BORDER="1" CELLBORDER="0" CELLPADDING="4" CELLSPACING="0">
<TR><TD ALIGN="LEFT" >(C)LoginActivity</TD></TR>
<HR/>
<TR><TD ALIGN="LEFT" >-   loadingProgressBar: ProgressBar [0..1]</TD></TR>
<TR><TD ALIGN="LEFT" >-   loginButton: Button [0..1]</TD></TR>
<TR><TD ALIGN="LEFT" >-   passwordEditText: EditText [0..1]</TD></TR>
<TR><TD ALIGN="LEFT" >-   registerLink: TextView [0..1]</TD></TR>
<TR><TD ALIGN="LEFT" >#   sessionManager: SessionManager [0..1]</TD></TR>
<TR><TD ALIGN="LEFT" >-   usernameEditText: EditText [0..1]</TD></TR>
<TR><TD ALIGN="LEFT" >-   wifiChecker: WifiChecker [0..1]</TD></TR>
<HR/>
<TR><TD ALIGN="LEFT" >- Login(username: String, password: String)</TD></TR>
<TR><TD ALIGN="LEFT" >+ onCreate(savedInstanceState: Bundle)</TD></TR>
</TABLE>>
	style=filled
	margin=0
	shape=plaintext
	fillcolor="#FFFFFF"
];

MainActivity14771875[
	label=<<TABLE BORDER="1" CELLBORDER="0" CELLPADDING="4" CELLSPACING="0">
<TR><TD ALIGN="LEFT" >(C)MainActivity</TD></TR>
<HR/>
<TR><TD ALIGN="LEFT" >#   bLogout: Button [0..1]</TD></TR>
<TR><TD ALIGN="LEFT" >#   bRestaurant: Button [0..1]</TD></TR>
<TR><TD ALIGN="LEFT" >#   btnProfile: ImageView [0..1]</TD></TR>
<TR><TD ALIGN="LEFT" >#   contactLink: TextView [0..1]</TD></TR>
<TR><TD ALIGN="LEFT" >#   etEmail: TextView [0..1]</TD></TR>
<TR><TD ALIGN="LEFT" >#   etName: TextView [0..1]</TD></TR>
<TR><TD ALIGN="LEFT" >#   etUserName: TextView [0..1]</TD></TR>
<TR><TD ALIGN="LEFT" >#   sessionManager: SessionManager [0..1]</TD></TR>
<TR><TD ALIGN="LEFT" >#   userId: String [0..1]</TD></TR>
<HR/>
<TR><TD ALIGN="LEFT" ># onCreate(savedInstanceState: Bundle)</TD></TR>
</TABLE>>
	style=filled
	margin=0
	shape=plaintext
	fillcolor="#FFFFFF"
];

ProfileActivity14771875[
	label=<<TABLE BORDER="1" CELLBORDER="0" CELLPADDING="4" CELLSPACING="0">
<TR><TD ALIGN="LEFT" >(C)ProfileActivity</TD></TR>
<HR/>
<TR><TD ALIGN="LEFT" >-   action: Menu [0..1]</TD></TR>
<TR><TD ALIGN="LEFT" >-   bitmap: Bitmap [0..1]</TD></TR>
<TR><TD ALIGN="LEFT" >#   deleteImageBtn: Button [0..1]</TD></TR>
<TR><TD ALIGN="LEFT" >#   editImageBtn: Button [0..1]</TD></TR>
<TR><TD ALIGN="LEFT" >#   email: EditText [0..1]</TD></TR>
<TR><TD ALIGN="LEFT" >#   openCameraBtn: Button [0..1]</TD></TR>
<TR><TD ALIGN="LEFT" >#   profileImage: CircleImageView [0..1]</TD></TR>
<TR><TD ALIGN="LEFT" >#   realName: EditText [0..1]</TD></TR>
<TR><TD ALIGN="LEFT" >#   saveBtn: Button [0..1]</TD></TR>
<TR><TD ALIGN="LEFT" >#   sessionManager: SessionManager [0..1]</TD></TR>
<TR><TD ALIGN="LEFT" >-   userName: String [0..1]</TD></TR>
<HR/>
<TR><TD ALIGN="LEFT" >- DeletePicture(id: String)</TD></TR>
<TR><TD ALIGN="LEFT" >- SaveEditDetails()</TD></TR>
<TR><TD ALIGN="LEFT" >- UploadPicture(id: String, photo: String)</TD></TR>
<TR><TD ALIGN="LEFT" >- chooseFile()</TD></TR>
<TR><TD ALIGN="LEFT" >- getStringImage(image: Bitmap): String</TD></TR>
<TR><TD ALIGN="LEFT" >- getUserDetail()</TD></TR>
<TR><TD ALIGN="LEFT" ># onActivityResult(requestCode: int, resultCode: int, data: Intent)</TD></TR>
<TR><TD ALIGN="LEFT" ># onCreate(savedInstanceState: Bundle)</TD></TR>
<TR><TD ALIGN="LEFT" >+ onCreateOptionsMenu(menu: Menu): boolean</TD></TR>
<TR><TD ALIGN="LEFT" ># onResume()</TD></TR>
<TR><TD ALIGN="LEFT" >- takePictureWithCamera()</TD></TR>
</TABLE>>
	style=filled
	margin=0
	shape=plaintext
	fillcolor="#FFFFFF"
];

RegisterActivity14771875[
	label=<<TABLE BORDER="1" CELLBORDER="0" CELLPADDING="4" CELLSPACING="0">
<TR><TD ALIGN="LEFT" >(C)RegisterActivity</TD></TR>
<HR/>
<TR><TD ALIGN="LEFT" >#   bRegister: Button [0..1]</TD></TR>
<TR><TD ALIGN="LEFT" >#   etConfirmPassword: EditText [0..1]</TD></TR>
<TR><TD ALIGN="LEFT" >#   etEmail: EditText [0..1]</TD></TR>
<TR><TD ALIGN="LEFT" >#   etName: EditText [0..1]</TD></TR>
<TR><TD ALIGN="LEFT" >#   etPassword: EditText [0..1]</TD></TR>
<TR><TD ALIGN="LEFT" >#   etUserName: EditText [0..1]</TD></TR>
<TR><TD ALIGN="LEFT" >#   pbLoading: ProgressBar [0..1]</TD></TR>
<TR><TD ALIGN="LEFT" >-   wifiChecker: WifiChecker [0..1]</TD></TR>
<HR/>
<TR><TD ALIGN="LEFT" >- Regist()</TD></TR>
<TR><TD ALIGN="LEFT" ># onCreate(savedInstanceState: Bundle)</TD></TR>
</TABLE>>
	style=filled
	margin=0
	shape=plaintext
	fillcolor="#FFFFFF"
];

RestaurantActivity725390456[
	label=<<TABLE BORDER="1" CELLBORDER="0" CELLPADDING="4" CELLSPACING="0">
<TR><TD ALIGN="LEFT" >(C)RestaurantActivity</TD></TR>
<HR/>
<TR><TD ALIGN="LEFT" >-   INDEX_DIR: String [0..1]</TD></TR>
<TR><TD ALIGN="LEFT" >-   cartDialog: Dialog [0..1]</TD></TR>
<TR><TD ALIGN="LEFT" >#   luceneCheckBox: CheckBox [0..1]</TD></TR>
<TR><TD ALIGN="LEFT" >-   mealNames: List&lt;String&gt; [0..*]</TD></TR>
<TR><TD ALIGN="LEFT" >#   presenter: RestaurantPresenter [0..1]</TD></TR>
<TR><TD ALIGN="LEFT" >#   recyclerViewCategory: RecyclerView [0..1]</TD></TR>
<TR><TD ALIGN="LEFT" >#   searchButton: ImageButton [0..1]</TD></TR>
<TR><TD ALIGN="LEFT" >#   searchTextView: AutoCompleteTextView [0..1]</TD></TR>
<TR><TD ALIGN="LEFT" >#   titleGrid: TextView [0..1]</TD></TR>
<TR><TD ALIGN="LEFT" >#   viewpagerMeal: ViewPager [0..1]</TD></TR>
<HR/>
<TR><TD ALIGN="LEFT" >+ ChangeCartIcon(context: Context)</TD></TR>
<TR><TD ALIGN="LEFT" >- GetAllIngredients()</TD></TR>
<TR><TD ALIGN="LEFT" >- GetAllMeals()</TD></TR>
<TR><TD ALIGN="LEFT" >- SearchCategory()</TD></TR>
<TR><TD ALIGN="LEFT" >- SearchUsingLucene(mealName: String)</TD></TR>
<TR><TD ALIGN="LEFT" >+ ShowCartPopup(v: View)</TD></TR>
<TR><TD ALIGN="LEFT" >+ afterTextChanged(s: Editable)</TD></TR>
<TR><TD ALIGN="LEFT" >+ beforeTextChanged(s: CharSequence, start: int, count: int, after: int)</TD></TR>
<TR><TD ALIGN="LEFT" >- doSearch(text: String): List&lt;Meal&gt;</TD></TR>
<TR><TD ALIGN="LEFT" >+ hideLoading()</TD></TR>
<TR><TD ALIGN="LEFT" ># onCreate(savedInstanceState: Bundle)</TD></TR>
<TR><TD ALIGN="LEFT" >+ onErrorLoading(message: String)</TD></TR>
<TR><TD ALIGN="LEFT" >+ onTextChanged(s: CharSequence, start: int, before: int, count: int)</TD></TR>
<TR><TD ALIGN="LEFT" >+ showLoading()</TD></TR>
</TABLE>>
	style=filled
	margin=0
	shape=plaintext
	fillcolor="#FFFFFF"
];

RestaurantPresenter725390456[
	label=<<TABLE BORDER="1" CELLBORDER="0" CELLPADDING="4" CELLSPACING="0">
<TR><TD ALIGN="LEFT" >(C)RestaurantPresenter</TD></TR>
<HR/>
<TR><TD ALIGN="LEFT" >-   view: RestaurantView [0..1]</TD></TR>
<HR/>
<TR><TD ALIGN="LEFT" ># getCategories()</TD></TR>
<TR><TD ALIGN="LEFT" ># getMeals()</TD></TR>
</TABLE>>
	style=filled
	margin=0
	shape=plaintext
	fillcolor="#FFFFFF"
];

SessionManager14771875[
	label=<<TABLE BORDER="1" CELLBORDER="0" CELLPADDING="4" CELLSPACING="0">
<TR><TD ALIGN="LEFT" >(C)SessionManager</TD></TR>
<HR/>
<TR><TD ALIGN="LEFT" >#   PRIVATE_MODE: int [1]</TD></TR>
<TR><TD ALIGN="LEFT" >+   context: Context [0..1]</TD></TR>
<TR><TD ALIGN="LEFT" >+   editor: Editor [0..1]</TD></TR>
<TR><TD ALIGN="LEFT" >#   sharedPreferences: SharedPreferences [0..1]</TD></TR>
<TR><TD ALIGN="LEFT" >#   wifiChecker: WifiChecker [0..1]</TD></TR>
<HR/>
<TR><TD ALIGN="LEFT" >+ checkLogin()</TD></TR>
<TR><TD ALIGN="LEFT" >+ createSession(id: int, name: String, userName: String, email: String)</TD></TR>
<TR><TD ALIGN="LEFT" >+ logout()</TD></TR>
</TABLE>>
	style=filled
	margin=0
	shape=plaintext
	fillcolor="#FFFFFF"
];

WifiChecker14771875[
	label=<<TABLE BORDER="1" CELLBORDER="0" CELLPADDING="4" CELLSPACING="0">
<TR><TD ALIGN="LEFT" >(C)WifiChecker</TD></TR>
<HR/>
<TR><TD ALIGN="LEFT" >+ checkWifistate(context: Context)</TD></TR>
<TR><TD ALIGN="LEFT" >+ closePopup()</TD></TR>
</TABLE>>
	style=filled
	margin=0
	shape=plaintext
	fillcolor="#FFFFFF"
];
} 
} 

'edges    
BaseNotifier14771875 -> CategoryActivity448957431[arrowhead=none, arrowtail=empty, dir=both];
BaseNotifier14771875 -> LoginActivity14771875[arrowhead=none, arrowtail=empty, dir=both];
BaseNotifier14771875 -> MainActivity14771875[arrowhead=none, arrowtail=empty, dir=both];
BaseNotifier14771875 -> ProfileActivity14771875[arrowhead=none, arrowtail=empty, dir=both];
BaseNotifier14771875 -> RegisterActivity14771875[arrowhead=none, arrowtail=empty, dir=both];
BaseNotifier14771875 -> RestaurantActivity725390456[arrowhead=none, arrowtail=empty, dir=both];
LoginActivity14771875 -> SessionManager14771875[label="sessionManager
[0..1]"];
LoginActivity14771875 -> WifiChecker14771875[label="wifiChecker
[0..1]"];
MainActivity14771875 -> SessionManager14771875[label="sessionManager
[0..1]"];
ProfileActivity14771875 -> SessionManager14771875[label="sessionManager
[0..1]"];
RegisterActivity14771875 -> WifiChecker14771875[label="wifiChecker
[0..1]"];
RestaurantActivity725390456 -> RestaurantPresenter725390456[label="presenter
[0..1]"];
RestaurantPresenter725390456 -> RestaurantActivity725390456[label="view
[0..1]"];
SessionManager14771875 -> WifiChecker14771875[label="wifiChecker
[0..1]"];
    
}
@enduml