@startuml

/' diagram meta data start
config=StructureConfiguration;
{
  "projectClassification": {
    "searchMode": "OpenProject", // OpenProject, AllProjects
    "includedProjects": "",
    "pathEndKeywords": "*.impl",
    "isClientPath": "",
    "isClientName": "",
    "isTestPath": "",
    "isTestName": "",
    "isMappingPath": "",
    "isMappingName": "",
    "isDataAccessPath": "",
    "isDataAccessName": "",
    "isDataStructurePath": "",
    "isDataStructureName": "",
    "isInterfaceStructuresPath": "",
    "isInterfaceStructuresName": "",
    "isEntryPointPath": "",
    "isEntryPointName": ""
  },
  "graphRestriction": {
    "classPackageExcludeFilter": "",
    "classPackageIncludeFilter": "",
    "classNameExcludeFilter": "",
    "classNameIncludeFilter": "",
    "methodNameExcludeFilter": "",
    "methodNameIncludeFilter": "",
    "removeByInheritance": "", // inheritance/annotation based filtering is done in a second step
    "removeByAnnotation": "",
    "removeByClassPackage": "", // cleanup the graph after inheritance/annotation based filtering is done
    "removeByClassName": "",
    "cutMappings": false,
    "cutEnum": true,
    "cutTests": true,
    "cutClient": true,
    "cutDataAccess": false,
    "cutInterfaceStructures": false,
    "cutDataStructures": false,
    "cutGetterAndSetter": true,
    "cutConstructors": true
  },
  "graphTraversal": {
    "forwardDepth": 6,
    "backwardDepth": 6,
    "classPackageExcludeFilter": "",
    "classPackageIncludeFilter": "",
    "classNameExcludeFilter": "",
    "classNameIncludeFilter": "",
    "methodNameExcludeFilter": "",
    "methodNameIncludeFilter": "",
    "hideMappings": false,
    "hideDataStructures": false,
    "hidePrivateMethods": true,
    "hideInterfaceCalls": true, // indirection: implementation -> interface (is hidden) -> implementation
    "onlyShowApplicationEntryPoints": false // root node is included
  },
  "details": {
    "aggregation": "GroupByClass", // ByClass, GroupByClass, None
    "showClassGenericTypes": true,
    "showMethods": true,
    "showMethodParameterNames": true,
    "showMethodParameterTypes": true,
    "showMethodReturnType": true,
    "showPackageLevels": 2,
    "showDetailedClassStructure": true
  },
  "rootClass": "com.example.fooddelivery.Category.CategoryView"
}
diagram meta data end '/



digraph g {
    rankdir="TB"
    splines=polyline
    

'nodes 
subgraph cluster_1322970774 { 
   	label=example
	labeljust=l
	fillcolor="#ececec"
	style=filled
   
   subgraph cluster_698802090 { 
   	label=fooddelivery
	labeljust=l
	fillcolor="#d8d8d8"
	style=filled
   
   CategoryFragment448957431[
	label=<<TABLE BORDER="1" CELLBORDER="0" CELLPADDING="4" CELLSPACING="0">
<TR><TD ALIGN="LEFT" >(C)CategoryFragment</TD></TR>
<HR/>
<TR><TD ALIGN="LEFT" >#   descDialog: Builder [0..1]</TD></TR>
<TR><TD ALIGN="LEFT" >#   imageCategory: ImageView [0..1]</TD></TR>
<TR><TD ALIGN="LEFT" >#   imageCategoryBg: ImageView [0..1]</TD></TR>
<TR><TD ALIGN="LEFT" >#   progressBar: ProgressBar [0..1]</TD></TR>
<TR><TD ALIGN="LEFT" >#   recyclerView: RecyclerView [0..1]</TD></TR>
<TR><TD ALIGN="LEFT" >#   textCategory: TextView [0..1]</TD></TR>
<HR/>
<TR><TD ALIGN="LEFT" >+ hideLoading()</TD></TR>
<TR><TD ALIGN="LEFT" >+ onClick()</TD></TR>
<TR><TD ALIGN="LEFT" >+ onCreateView(inflater: LayoutInflater, container: ViewGroup, savedInstanceState: Bundle): View</TD></TR>
<TR><TD ALIGN="LEFT" >+ onErrorLoading(message: String)</TD></TR>
<TR><TD ALIGN="LEFT" >+ onViewCreated(view: View, savedInstanceState: Bundle)</TD></TR>
<TR><TD ALIGN="LEFT" >+ showLoading()</TD></TR>
</TABLE>>
	style=filled
	margin=0
	shape=plaintext
	fillcolor="#FFFFFF"
];

CategoryPresenter448957431[
	label=<<TABLE BORDER="1" CELLBORDER="0" CELLPADDING="4" CELLSPACING="0">
<TR><TD ALIGN="LEFT" >(C)CategoryPresenter</TD></TR>
<HR/>
<TR><TD ALIGN="LEFT" >-   view: CategoryView [0..1]</TD></TR>
<HR/>
<TR><TD ALIGN="LEFT" ># getMealByCategory(category: String)</TD></TR>
</TABLE>>
	style=filled
	margin=0
	shape=plaintext
	fillcolor="#FFFFFF"
];

CategoryView448957431[
	label=<<TABLE BORDER="1" CELLBORDER="0" CELLPADDING="4" CELLSPACING="0">
<TR><TD ALIGN="LEFT" >(I)CategoryView</TD></TR>
<HR/>
<TR><TD ALIGN="LEFT" >+ hideLoading()</TD></TR>
<TR><TD ALIGN="LEFT" >+ onErrorLoading(message: String)</TD></TR>
<TR><TD ALIGN="LEFT" >+ setMeals(meals: List&lt;Meal&gt;)</TD></TR>
<TR><TD ALIGN="LEFT" >+ showLoading()</TD></TR>
</TABLE>>
	style=filled
	margin=0
	shape=plaintext
	fillcolor="#F1E5FD"
];
} 
} 

'edges    
CategoryPresenter448957431 -> CategoryView448957431[label="view
[0..1]"];
CategoryView448957431 -> CategoryFragment448957431[arrowhead=none, arrowtail=empty, dir=both];
    
}
@enduml