@startuml

/' diagram meta data start
config=StructureConfiguration;
{
  "projectClassification": {
    "searchMode": "OpenProject", // OpenProject, AllProjects
    "includedProjects": "",
    "pathEndKeywords": "*.impl",
    "isClientPath": "",
    "isClientName": "",
    "isTestPath": "",
    "isTestName": "",
    "isMappingPath": "",
    "isMappingName": "",
    "isDataAccessPath": "",
    "isDataAccessName": "",
    "isDataStructurePath": "",
    "isDataStructureName": "",
    "isInterfaceStructuresPath": "",
    "isInterfaceStructuresName": "",
    "isEntryPointPath": "",
    "isEntryPointName": ""
  },
  "graphRestriction": {
    "classPackageExcludeFilter": "",
    "classPackageIncludeFilter": "",
    "classNameExcludeFilter": "",
    "classNameIncludeFilter": "",
    "methodNameExcludeFilter": "",
    "methodNameIncludeFilter": "",
    "removeByInheritance": "", // inheritance/annotation based filtering is done in a second step
    "removeByAnnotation": "",
    "removeByClassPackage": "", // cleanup the graph after inheritance/annotation based filtering is done
    "removeByClassName": "",
    "cutMappings": false,
    "cutEnum": true,
    "cutTests": true,
    "cutClient": true,
    "cutDataAccess": false,
    "cutInterfaceStructures": false,
    "cutDataStructures": false,
    "cutGetterAndSetter": true,
    "cutConstructors": true
  },
  "graphTraversal": {
    "forwardDepth": 6,
    "backwardDepth": 6,
    "classPackageExcludeFilter": "",
    "classPackageIncludeFilter": "",
    "classNameExcludeFilter": "",
    "classNameIncludeFilter": "",
    "methodNameExcludeFilter": "",
    "methodNameIncludeFilter": "",
    "hideMappings": false,
    "hideDataStructures": false,
    "hidePrivateMethods": true,
    "hideInterfaceCalls": true, // indirection: implementation -> interface (is hidden) -> implementation
    "onlyShowApplicationEntryPoints": false // root node is included
  },
  "details": {
    "aggregation": "GroupByClass", // ByClass, GroupByClass, None
    "showClassGenericTypes": true,
    "showMethods": true,
    "showMethodParameterNames": true,
    "showMethodParameterTypes": true,
    "showMethodReturnType": true,
    "showPackageLevels": 2,
    "showDetailedClassStructure": true
  },
  "rootClass": "com.example.fooddelivery.Api.FoodApi"
}
diagram meta data end '/



digraph g {
    rankdir="TB"
    splines=polyline
    

'nodes 
subgraph cluster_1322970774 { 
   	label=example
	labeljust=l
	fillcolor="#ececec"
	style=filled
   
   subgraph cluster_698802090 { 
   	label=fooddelivery
	labeljust=l
	fillcolor="#d8d8d8"
	style=filled
   
   FoodApi1322076207[
	label=<<TABLE BORDER="1" CELLBORDER="0" CELLPADDING="4" CELLSPACING="0">
<TR><TD ALIGN="LEFT" >(I)FoodApi</TD></TR>
<HR/>
<TR><TD ALIGN="LEFT" >+ getCategories(): Call&lt;Categories&gt;</TD></TR>
<TR><TD ALIGN="LEFT" >+ getMeal(): Call&lt;Meals&gt;</TD></TR>
<TR><TD ALIGN="LEFT" >+ getMealByName(mealName: String): Call&lt;Meals&gt;</TD></TR>
<TR><TD ALIGN="LEFT" >+ getMealsByCategory(category: String): Call&lt;Meals&gt;</TD></TR>
</TABLE>>
	style=filled
	margin=0
	shape=plaintext
	fillcolor="#F1E5FD"
];
} 
} 

'edges    

    
}
@enduml